<?xml version="1.0" encoding="utf-8"?>
<!-- Generator: Adobe Illustrator 26.2.0, SVG Export Plug-In . SVG Version: 6.00 Build 0)  -->
<svg version="1.1" id="Layer_1" xmlns="http://www.w3.org/2000/svg" xmlns:xlink="http://www.w3.org/1999/xlink" x="0px" y="0px"
	 viewBox="0 0 24 24" style="enable-background:new 0 0 24 24;" xml:space="preserve">
<style type="text/css">
	.st0{fill:#5A7C91;}
	.st1{fill:#DF0024;}
	.st2{fill:#00CCFF;}
	.st3{fill:#002B49;}
</style>
<g>
	<rect x="3.5" y="17.5" class="st0" width="19" height="2.5"/>
	<rect y="13" class="st1" width="9" height="2.5"/>
	<rect x="6" y="8.5" class="st2" width="18" height="2.5"/>
	<rect x="1.5" y="4" class="st3" width="18" height="2.5"/>
</g>
</svg>
