// Jest Snapshot v1, https://goo.gl/fbAQLP

exports[`renders alert message 1`] = `
<div>
  <span
    class="part"
  >
    !
    03
     
    4
     
    IDLE
     
  </span>
  <span
    class="part"
  >
    --
  </span>
  <span
    class="part"
  >
     
  </span>
  <span
    class="part"
  />
</div>
`;

exports[`renders alert message with data 1`] = `
<div>
  <span
    class="part"
  >
    !
    03
     
    4
     
    IDLE
     
  </span>
  <span
    class="part"
  >
    --
  </span>
  <span
    class="part"
  >
     
  </span>
  <span
    class="part"
  >
     
    00
  </span>
</div>
`;

exports[`renders checksum invalid 1`] = `
<div>
  <span
    class="part"
  >
    @
    2
     
    1
     
    67
     
  </span>
  <span
    class="part"
  >
    OK
  </span>
  <span
    class="part"
  >
     
    IDLE
     
  </span>
  <span
    class="part"
  >
    --
  </span>
  <span
    class="part"
  >
     
  </span>
  <span
    class="part"
  >
    00
  </span>
  <span
    class="checksum"
  >
    :
  </span>
  <span
    class="checksum fault"
  >
    00
  </span>
</div>
`;

exports[`renders checksum invalid 2`] = `
<div>
  <span
    class="part"
  >
    @
    2
     
    1
     
    67
     
  </span>
  <span
    class="part"
  >
    OK
  </span>
  <span
    class="part"
  >
     
    IDLE
     
  </span>
  <span
    class="part"
  >
    --
  </span>
  <span
    class="part"
  >
     
  </span>
  <span
    class="part"
  >
    00
  </span>
  <span
    class="checksum"
  >
    :
  </span>
  <span
    class="checksum fault"
  >
    BS
  </span>
</div>
`;

exports[`renders checksum invalid 3`] = `
<div>
  <span
    class="part"
  >
    #
    1
     
    0
     
    some invalid
  </span>
  <span
    class="checksum"
  >
    :
  </span>
  <span
    class="checksum fault"
  >
    01
  </span>
</div>
`;

exports[`renders command message 1`] = `
<div>
  <span
    class="part"
  >
    /
    home
  </span>
</div>
`;

exports[`renders command message with device and axis 1`] = `
<div>
  <span
    class="part"
  >
    /
    01
     
    2
     
    33
     
    home
  </span>
</div>
`;

exports[`renders info message with checksum 1`] = `
<div>
  <span
    class="part"
  >
    #
    1
     
    2
     
    11
     
    some info message
  </span>
  <span
    class="checksum"
  >
    :
  </span>
  <span
    class="checksum"
  >
    78
  </span>
</div>
`;

exports[`renders reply OK 1`] = `
<div>
  <span
    class="part"
  >
    @
    2
     
    1
     
    67
     
  </span>
  <span
    class="part"
  >
    OK
  </span>
  <span
    class="part"
  >
     
    IDLE
     
  </span>
  <span
    class="part"
  >
    --
  </span>
  <span
    class="part"
  >
     
  </span>
  <span
    class="part"
  >
    00
  </span>
  <span
    class="checksum"
  >
    :
  </span>
  <span
    class="checksum"
  >
    CE
  </span>
</div>
`;

exports[`renders reply RJ 1`] = `
<div>
  <span
    class="part"
  >
    @
    2
     
    1
     
    67
     
  </span>
  <span
    class="part fault"
  >
    RJ
  </span>
  <span
    class="part"
  >
     
    IDLE
     
  </span>
  <span
    class="part"
  >
    --
  </span>
  <span
    class="part"
  >
     
  </span>
  <span
    class="part fault"
  >
    BADDATA
  </span>
  <span
    class="checksum"
  >
    :
  </span>
  <span
    class="checksum"
  >
    4B
  </span>
</div>
`;

exports[`renders reply errorFlag fault 1`] = `
<div>
  <span
    class="part"
  >
    @
    2
     
    1
     
    67
     
  </span>
  <span
    class="part"
  >
    OK
  </span>
  <span
    class="part"
  >
     
    IDLE
     
  </span>
  <span
    class="part fault"
  >
    FS
  </span>
  <span
    class="part"
  >
     
  </span>
  <span
    class="part"
  >
    0
  </span>
  <span
    class="checksum"
  >
    :
  </span>
  <span
    class="checksum"
  >
    BF
  </span>
</div>
`;

exports[`renders reply errorFlag fault 2`] = `
<div>
  <span
    class="part"
  >
    @
    2
     
    1
     
    67
     
  </span>
  <span
    class="part"
  >
    OK
  </span>
  <span
    class="part"
  >
     
    IDLE
     
  </span>
  <span
    class="part note"
  >
    NC
  </span>
  <span
    class="part"
  >
     
  </span>
  <span
    class="part"
  >
    0
  </span>
  <span
    class="checksum"
  >
    :
  </span>
  <span
    class="checksum"
  >
    BF
  </span>
</div>
`;

exports[`renders reply errorFlag warning 1`] = `
<div>
  <span
    class="part"
  >
    @
    2
     
    1
     
    67
     
  </span>
  <span
    class="part"
  >
    OK
  </span>
  <span
    class="part"
  >
     
    IDLE
     
  </span>
  <span
    class="part warn"
  >
    WJ
  </span>
  <span
    class="part"
  >
     
  </span>
  <span
    class="part"
  >
    0
  </span>
  <span
    class="checksum"
  >
    :
  </span>
  <span
    class="checksum"
  >
    BF
  </span>
</div>
`;

exports[`renders reply no checksum 1`] = `
<div>
  <span
    class="part"
  >
    @
    2
     
    1
     
  </span>
  <span
    class="part"
  >
    OK
  </span>
  <span
    class="part"
  >
     
    IDLE
     
  </span>
  <span
    class="part"
  >
    --
  </span>
  <span
    class="part"
  >
     
  </span>
  <span
    class="part"
  >
    00
  </span>
</div>
`;

exports[`renders unknown message 1`] = `
<div>
  <span
    class="part"
  >
    gibberish message
  </span>
</div>
`;
