<?xml version="1.0" encoding="UTF-8" standalone="no"?>
<svg
   id="Load_-_component"
   data-name="Load - component"
   viewBox="0 0 128 32"
   version="1.1"
   sodipodi:docname="coil-off.svg"
   inkscape:version="1.2.2 (b0a8486, 2022-12-01)"
   xmlns:inkscape="http://www.inkscape.org/namespaces/inkscape"
   xmlns:sodipodi="http://sodipodi.sourceforge.net/DTD/sodipodi-0.dtd"
   xmlns="http://www.w3.org/2000/svg"
   xmlns:svg="http://www.w3.org/2000/svg">
  <defs
     id="defs7" />
  <sodipodi:namedview
     id="namedview5"
     pagecolor="#ffffff"
     bordercolor="#000000"
     borderopacity="0.25"
     inkscape:showpageshadow="2"
     inkscape:pageopacity="0.0"
     inkscape:pagecheckerboard="0"
     inkscape:deskcolor="#d1d1d1"
     showgrid="false"
     inkscape:zoom="5.8994098"
     inkscape:cx="32.037103"
     inkscape:cy="20.002001"
     inkscape:window-width="1309"
     inkscape:window-height="456"
     inkscape:window-x="196"
     inkscape:window-y="25"
     inkscape:window-maximized="0"
     inkscape:current-layer="Load_-_component" />
  <path
     id="Union_96"
     data-name="Union 96"
     d="M 124,32 V 11.69 H 73 L 64,19.69 55,11.69 H 4 V 32 H 0 V 9.848 A 1.931,1.931 0 0 1 2,8 H 55 L 64,0 73,8 H 126 a 1.931,1.931 0 0 1 2,1.848 V 32 z"
     fill="#888888" />
  <rect
     id="Rectangle_2664"
     data-name="Rectangle 2664"
     width="78"
     height="8"
     fill="#f89b11"
     opacity="0"
     x="-7.0009999"
     y="32" />
</svg>
