<?xml version="1.0" encoding="utf-8"?>
<!-- Generator: Adobe Illustrator 26.0.3, SVG Export Plug-In . SVG Version: 6.00 Build 0)  -->
<svg version="1.1" id="Layer_1" xmlns="http://www.w3.org/2000/svg" xmlns:xlink="http://www.w3.org/1999/xlink" x="0px" y="0px"
	 viewBox="0 0 80 80" style="enable-background:new 0 0 80 80;" xml:space="preserve">
<style type="text/css">
	.st0{fill:#D22328;}
	.st1{fill:#5A7C91;}
	.st2{fill:#4C697B;}
	.st3{fill:#CCCCCC;}
	.st4{fill:#FFFFFF;}
</style>
<path class="st0" d="M64,80H16C7.2,80,0,72.8,0,64V16C0,7.2,7.2,0,16,0h48c8.8,0,16,7.2,16,16v48C80,72.8,72.8,80,64,80z"/>
<path class="st1" d="M64,80H16C7.2,80,0,72.8,0,64V16C0,7.2,7.2,0,16,0h48c8.8,0,16,7.2,16,16v48C80,72.8,72.8,80,64,80z"/>
<path class="st2" d="M29.7,80h33.9C73.3,80,80,72.6,80,63.7v-25L65.2,18.2l-3,2.3L54.1,9.6L41.4,19l-4.9-6.8L14.7,27.4l6.6,8.5
	L7.8,42.5l9.8,13.6l-4.3,3.2L29.7,80z"/>
<path class="st3" d="M31.8,44.1c0.8,1.8,2.1,3.3,3.7,4.3c4.6,2.8,10.6,1.4,13.5-3.2h-8.7L37.5,40l2.8-5.2H49c-1-1.6-2.5-3-4.2-3.8
	c-4.9-2.3-10.7-0.1-13,4.8c-4.8-0.1-12.5-0.6-17.1-0.7C9.4,34.9,7,37.3,7,40s2.4,5.1,7.6,4.9C19.3,44.7,26.9,44.2,31.8,44.1z"/>
<path id="Path_903_3_" class="st3" d="M64.9,46.3l8.1-2.4v-7.2l-7.8-2.3c-0.3-1.4-0.7-2.8-1.2-4.1l5.2-6.8L65,17.8l-7.7,2.8
	c-1.1-1-2.3-2-3.7-2.8l0.2-8.6L47.1,7l-4.4,7c-0.8-0.1-1.7-0.1-2.5-0.1v7.5c10.2,0,18.5,8.3,18.5,18.5s-8.3,18.5-18.5,18.5V66
	c0.4,0,0.8,0,1.3,0c0.3,0,0.6,0,0.9-0.1l4.9,7l6.6-2.4l-0.4-8.3c1.2-0.7,2.3-1.5,3.3-2.4l8,2.8l4.1-5.8l-5.1-6.5
	C64.1,49,64.6,47.7,64.9,46.3z"/>
<path id="Path_904_3_" class="st4" d="M24.9,50.4h-8.1l0,0l-4.9,7l4.3,5.6l7.6-3.1c1,0.9,2.2,1.7,3.3,2.4v8.6l6.7,2l4.4-7
	c0.6,0.1,1.2,0.1,1.9,0.1v-7.5C34,58.5,28.4,55.5,24.9,50.4z"/>
<path id="Path_905_3_" class="st4" d="M40.1,21.4L40.1,21.4v-7.5c-0.4,0-0.8,0-1.2,0c-0.3,0-0.7,0.1-1,0.1L33,7l-6.6,2.4l0.5,8.3
	c-1.2,0.8-2.3,1.6-3.4,2.6l-8-2.8l-4,5.9l5.1,6.5V30h8C28,24.6,33.9,21.4,40.1,21.4z"/>
<path class="st4" d="M37.5,39.9L37.5,39.9l2.8-5.2H49c-2.8-4.6-8.9-6.1-13.5-3.2c-1.6,1-3,2.5-3.8,4.3c-4.8-0.1-12.5-0.6-17.1-0.7
	C9.4,34.9,7,37.2,7,39.9H37.5L37.5,39.9z"/>
</svg>
