<?xml version="1.0" encoding="utf-8"?>
<!-- Generator: Adobe Illustrator 24.3.0, SVG Export Plug-In . SVG Version: 6.00 Build 0)  -->
<svg version="1.1" id="Layer_1" xmlns="http://www.w3.org/2000/svg" xmlns:xlink="http://www.w3.org/1999/xlink" x="0px" y="0px"
	 viewBox="0 0 36 36" style="enable-background:new 0 0 36 36;" xml:space="preserve">
<style type="text/css">
	.st0{fill:#CCCCCC;}
	.st1{fill:#FFFFFF;}
</style>
<g>
	<g>
		<path class="st0" d="M21.6,22.5l2-0.6v-1.7l-1.9-0.6c-0.1-0.3-0.2-0.7-0.3-1l1.3-1.6l-1-1.4l-1.8,0.7c-0.3-0.2-0.6-0.5-0.9-0.7
			l0-2.1l-1.6-0.5l-1.1,1.7c-0.2,0-0.4,0-0.6,0v3.2l0,0c0.9,0,1.8,0.4,2.3,1.1c0,0,0,0,0,0c0,0,0.1,0.1,0.1,0.1c0,0,0.1,0.1,0.1,0.1
			c0,0,0,0,0,0.1c0.3,0.4,0.5,0.9,0.5,1.4l0,0c0,0.1,0,0.1,0,0.2c0,0,0,0.1,0,0.1c0,0,0,0,0,0c0,0,0,0,0,0c0,0.1,0,0.2,0,0.2
			c0,0,0,0.1,0,0.1c0,0.1,0,0.1,0,0.2c0,0.1,0,0.1,0,0.2s0,0,0,0.1c-0.3,1.4-1.6,2.3-3,2.3l0,0v3.2c0.1,0,0.2,0,0.3,0
			c0.1,0,0.1,0,0.2,0l1.2,1.7l1.6-0.6l0-2.1c0.3-0.2,0.6-0.4,0.8-0.6l1.9,0.7l1-1.4l-1.3-1.6C21.4,23.1,21.5,22.8,21.6,22.5z"/>
		<path class="st1" d="M12.4,20.9c0-1.7,1.4-3.1,3.1-3.1v-3.2c-0.1,0-0.2,0-0.3,0c-0.1,0-0.2,0-0.2,0l-1.2-1.7l-1.6,0.6l0.1,2
			c-0.3,0.2-0.6,0.4-0.8,0.6l-1.9-0.7l-1,1.4l1.3,1.6c-0.1,0.3-0.2,0.7-0.3,1l-1.9,0.6l0,1.7l1.9,0.5c0.1,0.4,0.2,0.8,0.4,1.1
			l-1.2,1.7l1,1.4l1.8-0.8c0.2,0.2,0.5,0.4,0.8,0.6v2.1l1.6,0.5l1.1-1.7c0.1,0,0.3,0,0.5,0V24C13.8,24,12.4,22.6,12.4,20.9z"/>
	</g>
	<g>
		<path class="st0" d="M27.5,11.8l1-0.3v-0.9l-0.9-0.3c0-0.2-0.1-0.3-0.1-0.5L28,9l-0.5-0.7l-0.9,0.3c-0.1-0.1-0.3-0.2-0.5-0.3l0-1
			L25.3,7l-0.6,0.8c-0.1,0-0.2,0-0.3,0v1.6l0,0c0.5,0,0.9,0.2,1.2,0.5l0,0c0,0,0,0,0.1,0.1c0,0,0,0,0,0.1c0,0,0,0,0,0
			c0.1,0.2,0.2,0.5,0.2,0.7l0,0c0,0,0,0,0,0.1s0,0,0,0.1l0,0l0,0c0,0,0,0.1,0,0.1s0,0,0,0c0,0,0,0.1,0,0.1s0,0.1,0,0.1v0
			c-0.2,0.7-0.8,1.2-1.5,1.2l0,0v1.6c0,0,0.1,0,0.1,0c0,0,0.1,0,0.1,0l0.6,0.8l0.8-0.3l-0.1-1c0.1-0.1,0.3-0.2,0.4-0.3l1,0.3
			l0.5-0.7l-0.6-0.8C27.4,12.1,27.4,12,27.5,11.8z"/>
		<path class="st1" d="M22.9,11c0-0.9,0.7-1.6,1.6-1.6V7.9c0,0-0.1,0-0.1,0c0,0-0.1,0-0.1,0L23.6,7l-0.8,0.3l0.1,1
			c-0.1,0.1-0.3,0.2-0.4,0.3l-1-0.3L21,9l0.6,0.8c-0.1,0.2-0.1,0.3-0.2,0.5l-1,0.3l0,0.9l1,0.3c0,0.2,0.1,0.4,0.2,0.6l-0.6,0.8
			l0.5,0.7l0.9-0.4c0.1,0.1,0.3,0.2,0.4,0.3v1l0.8,0.2l0.5-0.8c0.1,0,0.1,0,0.2,0v-1.6C23.6,12.6,22.9,11.9,22.9,11z"/>
	</g>
</g>
</svg>
