<?xml version="1.0" encoding="UTF-8"?>
<svg id="Layer_1" xmlns="http://www.w3.org/2000/svg" viewBox="0 0 36 36">
  <defs>
    <style>
      .cls-1 {
        fill: #ec1c24;
      }
    </style>
  </defs>
  <polygon points="5.9254 18.8556 16.623 27.3826 16.623 23.3485 30 23.3485 30 18.8513 5.9254 18.8556 5.9254 18.8556"/>
  <polygon class="cls-1" points="30 17.1443 19.3028 8.6174 19.3028 12.6512 5.9631 12.6489 5.9631 17.1461 30 17.1443 30 17.1443"/>
</svg>