<?xml version="1.0" encoding="UTF-8"?>
<svg xmlns="http://www.w3.org/2000/svg" version="1.1" viewBox="0 0 36 36">
  <defs>
    <style>
      .cls-1 {
        fill: currentColor;
      }
    </style>
  </defs>
  <!-- Generator: Adobe Illustrator 28.7.1, SVG Export Plug-In . SVG Version: 1.2.0 Build 142)  -->
  <g>
    <g id="Layer_1">
      <g>
        <path class="cls-1" d="M17.655,24.219h-7.379c-.552,0-1-.447-1-1v-3.379c0-.553.448-1,1-1h7.379c.552,0,1,.447,1,1v3.379c0,.553-.448,1-1,1ZM11.276,22.219h5.379v-1.379h-5.379v1.379Z"/>
        <path class="cls-1" d="M28,29.02H8c-.552,0-1-.447-1-1v-4.276c0-.553.448-1,1-1h11.275v-2.448c0-.284.121-.555.332-.744l3.014-2.702v-3.726h-5.414v2.034c0,.552-.448,1-1,1h-.655v.931c0,.219-.072.432-.205.606l-.552.724c-.183.24-.465.385-.767.394-.3.023-.591-.119-.788-.349l-.621-.724c-.155-.181-.241-.412-.241-.651v-.931h-.552c-.552,0-1-.448-1-1v-2.034h-2.828c-.552,0-1-.448-1-1v-4.104c0-.552.448-1,1-1h20c.553,0,1,.448,1,1v20c0,.553-.447,1-1,1ZM9,27.02h18V9.02H9v2.104h2.828c.552,0,1,.448,1,1v2.034h.552c.219,0,.421.07.586.19.165-.12.368-.19.586-.19h.655v-2.034c0-.552.448-1,1-1h7.414c.553,0,1,.448,1,1v5.172c0,.284-.121.555-.332.745l-3.014,2.701v3.002c0,.553-.447,1-1,1h-11.275v2.276Z"/>
      </g>
    </g>
  </g>
</svg>