<?xml version="1.0" encoding="utf-8"?>
<!-- Generator: Adobe Illustrator 24.3.0, SVG Export Plug-In . SVG Version: 6.00 Build 0)  -->
<svg version="1.1" id="Layer_1" xmlns="http://www.w3.org/2000/svg" xmlns:xlink="http://www.w3.org/1999/xlink" x="0px" y="0px"
	 viewBox="0 0 36 36" style="enable-background:new 0 0 36 36;" xml:space="preserve">
<style type="text/css">
	.st0{fill:#CCCCCC;}
	.st1{fill:#FFFFFF;}
</style>
<g>
	<path id="Path_903_2_" class="st0" d="M27,20.3l3-0.9v-2.6L27.1,16c-0.1-0.5-0.3-1-0.4-1.5l1.9-2.5l-1.5-2.1l-2.8,1
		c-0.4-0.4-0.8-0.7-1.4-1L23,6.8L20.5,6l-1.6,2.5c-0.3,0-0.6,0-0.9,0v2.7c3.7,0,6.8,3,6.8,6.7s-3,6.7-6.8,6.7v2.8c0.1,0,0.3,0,0.5,0
		c0.1,0,0.2,0,0.3,0l1.8,2.5l2.4-0.9l-0.1-3c0.4-0.3,0.8-0.5,1.2-0.9l2.9,1l1.5-2.1l-1.9-2.4C26.7,21.3,26.9,20.8,27,20.3z"/>
	<path id="Path_903_4_" class="st1" d="M9.4,21.8l-1.9,2.4L9,26.2l2.9-1c0.4,0.3,0.8,0.6,1.2,0.9l-0.1,3l2.4,0.9l1.8-2.5
		c0.1,0,0.2,0,0.3,0c0.2,0,0.3,0,0.5,0v-2.8c-3.7,0-6.8-3-6.8-6.7s3-6.7,6.8-6.7V8.5c-0.3,0-0.6,0-0.9,0L15.5,6L13,6.8l0.1,3.1
		c-0.5,0.3-1,0.7-1.4,1l-2.8-1L7.4,12l1.9,2.5C9.1,15,9,15.5,8.9,16L6,16.8v2.6l3,0.9C9.1,20.8,9.3,21.3,9.4,21.8z"/>
	<path class="st0" d="M22.6,19.5h-1.8V19c0-0.5-0.4-0.9-0.9-0.9S19,18.5,19,19v0.4h-5.6c-0.5,0-0.9,0.4-0.9,0.9
		c0,0.5,0.4,0.9,0.9,0.9H19v0.4c0,0.5,0.4,0.9,0.9,0.9s0.9-0.4,0.9-0.9v-0.4h1.8c0.5,0,0.9-0.4,0.9-0.9
		C23.5,19.8,23.1,19.5,22.6,19.5z"/>
	<path class="st0" d="M22.6,15h-6.1v-0.4c0-0.5-0.4-0.9-0.9-0.9s-0.9,0.4-0.9,0.9V15h-1.3c-0.5,0-0.9,0.4-0.9,0.9s0.4,0.9,0.9,0.9
		h1.3v0.4c0,0.5,0.4,0.9,0.9,0.9s0.9-0.4,0.9-0.9v-0.4h6c0.5,0,0.9-0.4,0.9-0.9S23.1,15,22.6,15z"/>
	<path class="st1" d="M16.5,15v-0.4c0-0.5-0.4-0.9-0.9-0.9s-0.9,0.4-0.9,0.9V15v1.7v0.4c0,0.5,0.4,0.9,0.9,0.9s0.9-0.4,0.9-0.9v-0.4
		V15z"/>
	<path class="st1" d="M20.8,19.5V19c0-0.5-0.4-0.9-0.9-0.9S19,18.5,19,19v0.4v1.7v0.4c0,0.5,0.4,0.9,0.9,0.9s0.9-0.4,0.9-0.9v-0.4
		V19.5z"/>
</g>
</svg>
