<?xml version="1.0" encoding="utf-8"?>
<!-- Generator: Adobe Illustrator 24.3.0, SVG Export Plug-In . SVG Version: 6.00 Build 0)  -->
<svg version="1.1" id="Layer_1" xmlns="http://www.w3.org/2000/svg" xmlns:xlink="http://www.w3.org/1999/xlink" x="0px" y="0px"
	 viewBox="0 0 36 36" style="enable-background:new 0 0 36 36;" xml:space="preserve">
<style type="text/css">
	.st0{fill:#CCCCCC;}
	.st1{fill:#FFFFFF;}
</style>
<g>
	<path id="Path_903_3_" class="st0" d="M26.3,20.1l2.7-0.8v-2.4l-2.6-0.8c-0.1-0.5-0.2-0.9-0.4-1.4l1.7-2.3l-1.4-1.9l-2.6,0.9
		c-0.4-0.3-0.8-0.7-1.2-0.9l0.1-2.9L20.4,7l-1.5,2.3c-0.3,0-0.6,0-0.8,0v2.5c3.4,0,6.2,2.8,6.2,6.2s-2.8,6.2-6.2,6.2v2.5
		c0.1,0,0.3,0,0.4,0c0.1,0,0.2,0,0.3,0l1.6,2.3l2.2-0.8l-0.1-2.8c0.4-0.2,0.8-0.5,1.1-0.8l2.7,0.9l1.4-1.9l-1.7-2.2
		C26,21,26.2,20.6,26.3,20.1z"/>
	<path id="Path_904_3_" class="st1" d="M13,21.5h-2.7l0,0l-1.6,2.3l1.4,1.9l2.5-1c0.3,0.3,0.7,0.6,1.1,0.8v2.9l2.2,0.7l1.5-2.3
		c0.2,0,0.4,0,0.6,0v-2.5C16,24.2,14.1,23.2,13,21.5z"/>
	<path id="Path_905_3_" class="st1" d="M18,11.8L18,11.8V9.3c-0.1,0-0.3,0-0.4,0c-0.1,0-0.2,0-0.3,0L15.7,7l-2.2,0.8l0.2,2.8
		c-0.4,0.3-0.8,0.5-1.1,0.9l-2.7-0.9l-1.3,2l1.7,2.2v0h2.7C14,12.9,16,11.8,18,11.8z"/>
	<path class="st1" d="M17.2,18L17.2,18l0.9-1.7H21c-0.9-1.5-3-2-4.5-1.1c-0.5,0.3-1,0.8-1.3,1.4c-1.6,0-4.2-0.2-5.7-0.2
		C7.8,16.3,7,17.1,7,18H17.2L17.2,18z"/>
	<path class="st0" d="M17.2,18L17.2,18L7,18v0c0,0.9,0.8,1.7,2.5,1.6c1.6-0.1,4.1-0.2,5.7-0.3c0.3,0.6,0.7,1.1,1.2,1.4
		c1.5,0.9,3.5,0.5,4.5-1.1h-2.9L17.2,18z"/>
</g>
</svg>
