<?xml version="1.0" encoding="UTF-8"?>
<svg id="Layer_1" data-name="Layer 1" xmlns="http://www.w3.org/2000/svg" viewBox="0 0 80 80">
  <defs>
    <style>
      .cls-1 {
        fill: #ddd;
      }

      .cls-1, .cls-2, .cls-3, .cls-4 {
        stroke-width: 0px;
      }

      .cls-2 {
        fill: #fff;
      }

      .cls-3 {
        fill: #eee;
      }

      .cls-4 {
        fill: #aaa;
      }

      .cls-5 {
        fill: none;
        stroke: #eee;
        stroke-linecap: round;
        stroke-miterlimit: 10;
        stroke-width: 4px;
      }
    </style>
  </defs>
  <g>
    <path class="cls-5" d="M43.79,25.92h0c7.97,4.87,9.48,14.63,3.36,21.69h0"/>
    <path class="cls-3" d="M19.82,51.02h20.34v3.88h-20.34c-.55,0-1-.45-1-1v-1.88c0-.55.45-1,1-1Z"/>
    <path class="cls-2" d="M52.12,52.96s-.38-6.4-6.54-6.4-6.71,6.4-6.71,6.4v13.77h24.09c-9.75,0-10.84-13.77-10.84-13.77ZM45.62,55.73c-1.38,0-2.5-1.12-2.5-2.5s1.12-2.5,2.5-2.5,2.5,1.12,2.5,2.5-1.12,2.5-2.5,2.5Z"/>
    <g>
      <rect class="cls-2" x="40.88" y="7.53" width="8.33" height="6.33" rx="1" ry="1" transform="translate(6.96 -15.64) rotate(21.31)"/>
      <rect class="cls-2" x="30.19" y="33.91" width="8.33" height="6.33" rx="1" ry="1" transform="translate(15.82 -9.95) rotate(21.31)"/>
      <rect class="cls-2" x="33.41" y="13.98" width="12.7" height="19.8" rx="1" ry="1" transform="translate(11.39 -12.82) rotate(21.31)"/>
    </g>
    <path class="cls-1" d="M52.12,52.96s-.38-6.4-6.54-6.4v4.17c1.41,0,2.54,1.12,2.54,2.5s-1.13,2.49-2.52,2.5l.02,11h17.34c-9.75,0-10.84-13.77-10.84-13.77Z"/>
    <path class="cls-3" d="M64.37,65.61h-29.05v-2.71c0-.55-.45-1-1-1h-11.17c-.55,0-1,.45-1,1v2.71h-7.79c-.55,0-1,.45-1,1v3.21c0,.55.45,1,1,1h50.01c.55,0,1-.45,1-1v-3.21c0-.55-.45-1-1-1Z"/>
  </g>
  <polygon class="cls-4" points="46.09 25.13 44.58 29.01 45.62 30.01 47.17 25.92 46.09 25.13"/>
  <path class="cls-4" d="M39.36,50.93s-.52,1.15-.5,3.97h-1.44l.56-3.88,1.37-.09Z"/>
</svg>