<?xml version="1.0" encoding="utf-8"?>
<!-- Generator: Adobe Illustrator 25.2.2, SVG Export Plug-In . SVG Version: 6.00 Build 0)  -->
<svg version="1.1" id="Layer_1" xmlns="http://www.w3.org/2000/svg" xmlns:xlink="http://www.w3.org/1999/xlink" x="0px" y="0px"
	 viewBox="0 0 275 130" style="enable-background:new 0 0 275 130;" xml:space="preserve">
<style type="text/css">
	.st0{fill:#EEEEEE;}
	.st1{fill:#ABABAB;}
	.st2{fill:#DDDDDD;}
	.st3{fill:#CCCCCB;}
	.st4{fill:#FFFFFF;}
	.st5{fill:#CCCCCC;}
</style>
<path class="st0" d="M244.9,76.9l-7-2.2L101,33.8l-1.4-16.3c0-0.1,0-0.2,0-0.3l0,0l0,0c-0.1-0.4-0.7-0.8-1.7-1c-2-0.4-32.8-8.7-34-9
	c-2.4-0.7-3.6,0.3-5.5,1.2S44,16.8,41.9,18.2c-1.4,0.9-1.7,1.7-1.1,2.3v0.6v0.8c0,0-7.9,4-9,4.7s-1.8,1.5-1.6,3.6s1.2,9.8,1.3,10.5
	c0.1,0.8,0.4,1.8,2,2.2s12.8,4.5,12.8,4.5l1.9,12.4l6.3,2.2l0,0l1.3-1.2l0.1,1.7l166.7,60.4l19.6-28.2L244.9,76.9z"/>
<polygon class="st1" points="54.4,62 54.1,58.7 55.7,59.3 55.8,60.9 "/>
<path class="st2" d="M64.5,29.4l1.9-1.1l-24.9-7.5c0,0-0.6-0.1-0.8-1.2c0,1.5,0,2.3,0,2.3L64.5,29.4z"/>
<path class="st2" d="M219.7,98.5l1.9-2.5c0,0-89.4-29.6-91.5-30.6c-1.6-0.8-0.8-3.7,0.1-4.5c0.9-0.8,2.1-0.6,2.1-0.6l93.4,29.9
	l8.9-11.8l-94-28.8l-18.8,16.1L219.7,98.5z"/>
<path class="st3" d="M121.6,65.6l19.1-16.2V63l-8.2-2.7c0,0-2.1-0.6-3,1.7c-1.1,2.7,0.6,3.4,0.6,3.4l5.5,1.9l-2.4,2.1L121.6,65.6z"
	/>
<polygon class="st2" points="48.2,59.8 45.5,42.1 65.8,49.5 66,52 223.6,106.8 222.4,122.9 55.9,62.5 55.7,59.3 54.1,58.7 54.4,62 
	"/>
<path class="st2" d="M55.7,35.5l-10.2,6.6l0.8,5.3c0,0-12.4-4.3-13-4.5s-1.7-0.7-1.8-2c-0.1-1.3-1.4-10.9-1.4-11.7
	c0-0.9,0.7-1.9,0.7-1.9c0,0.8,0.5,0.7,1.1,1C32.6,28.5,55.7,35.5,55.7,35.5z"/>
<path class="st3" d="M99.6,18c-0.7,0.9-12.2,8.6-12.2,8.6l7.2,2.2L65.8,49.5L66,52l28.7-20l6.2,1.9L99.6,18z"/>
<polygon class="st3" points="222.4,122.9 223.6,106.8 244.9,76.9 242.2,94.8 "/>
<path class="st2" d="M85,46.8c1.4-2.5,5-2.5,6.4,0l12.9,22.3l12.9,22.3c1.4,2.5-0.3,5.5-3.2,5.5H88.2H62.4c-2.8,0-4.6-3.1-3.2-5.5
	l12.9-22.3L85,46.8z"/>
<polygon class="st4" points="88.2,51.5 99.8,71.6 111.3,91.7 88.2,91.7 65,91.7 76.6,71.6 "/>
<path class="st5" d="M95,88.9c-0.6,0-1.3-0.2-1.8-0.7L79.6,74.6c-1-1-1-2.6,0-3.5c1-1,2.6-1,3.5,0l13.7,13.7c1,1,1,2.6,0,3.5
	C96.3,88.7,95.6,88.9,95,88.9z"/>
<path class="st5" d="M81.3,88.9c-0.6,0-1.3-0.2-1.8-0.7c-1-1-1-2.6,0-3.5L93.2,71c1-1,2.6-1,3.5,0c1,1,1,2.6,0,3.5L83.1,88.2
	C82.6,88.7,82,88.9,81.3,88.9z"/>
</svg>
