<?xml version="1.0" encoding="utf-8"?>
<!-- Generator: Adobe Illustrator 26.0.3, SVG Export Plug-In . SVG Version: 6.00 Build 0)  -->
<svg version="1.1" id="Layer_1" xmlns="http://www.w3.org/2000/svg" xmlns:xlink="http://www.w3.org/1999/xlink" x="0px" y="0px"
	 viewBox="0 0 80 80" style="enable-background:new 0 0 80 80;" xml:space="preserve">
<style type="text/css">
	.st0{fill:#CCCCCC;}
	.st1{fill:#FFFFFF;}
</style>
<path class="st0" d="M14.9,15.2v50h50v-50C64.9,15.2,14.9,15.2,14.9,15.2z M55.8,45.7c-0.1,0.4-2.9,9-9.6,9c-3.4,0-5.5-3.9-7.8-8
	c-1.6-3-3.9-7.1-5.6-7.1c-2.9,0-4,2.5-5.2,5.9c-0.2,0.5-0.3,1-0.5,1.4c-0.4,1-1.6,1.5-2.6,1.1s-1.5-1.6-1.1-2.6
	c0.1-0.4,0.3-0.8,0.4-1.2c1.1-3,3-8.5,9-8.5c4.1,0,6.7,4.6,9.1,9.1c1.1,1.9,3.3,6,4.3,6c3.7,0,5.7-6.1,5.7-6.1
	c0.3-1.1,1.5-1.6,2.5-1.3C55.5,43.6,56.1,44.7,55.8,45.7z"/>
<rect x="14.9" y="15.2" class="st1" width="50" height="11.7"/>
<g>
	<path class="st1" d="M40.9,42.9V29c0-0.6-0.4-1-1-1s-1,0.4-1,1v10.7C39.6,40.7,40.2,41.8,40.9,42.9z"/>
	<path class="st1" d="M42,45c0.3,0.6,0.7,1.3,1.1,2h7.8c0.5-0.9,0.8-1.6,0.9-2H42z"/>
	<path class="st1" d="M27.6,45.5c-0.2,0.5-0.3,1-0.5,1.4c0,0,0,0,0,0.1h11.5c0-0.1-0.1-0.2-0.1-0.3c-0.3-0.6-0.6-1.1-1-1.7h-9.7
		C27.7,45.1,27.7,45.3,27.6,45.5z"/>
	<path class="st1" d="M62.7,45h-6.8c0,0.2,0,0.5-0.1,0.7c0,0.1-0.2,0.6-0.5,1.3h7.3c0.6,0,1-0.4,1-1S63.2,45,62.7,45z"/>
	<path class="st1" d="M38.9,47.5v15.4c0,0.6,0.4,1,1,1s1-0.4,1-1v-12C40.2,49.8,39.5,48.7,38.9,47.5z"/>
	<path class="st1" d="M23.4,45.4c0-0.1,0.1-0.3,0.1-0.4H17c-0.6,0-1,0.4-1,1s0.4,1,1,1h6.4C23.2,46.5,23.2,45.9,23.4,45.4z"/>
</g>
</svg>
