<?xml version="1.0" encoding="utf-8"?>
<!-- Generator: Adobe Illustrator 24.3.0, SVG Export Plug-In . SVG Version: 6.00 Build 0)  -->
<svg version="1.1" id="Layer_1" xmlns="http://www.w3.org/2000/svg" xmlns:xlink="http://www.w3.org/1999/xlink" x="0px" y="0px"
	 viewBox="0 0 36 36" style="enable-background:new 0 0 36 36;" xml:space="preserve">
<style type="text/css">
	.st0{fill:#D32024;}
	.st1{fill:#FFFFFF;}
</style>
<circle class="st0" cx="18" cy="18" r="18"/>
<path class="st1" d="M21.7,30c-1.4,0-3-0.4-4.6-1.6c-3.1-2.3-9.3-11.2-8.1-17c0.6-2.9,2.7-4.4,3.4-4.9c1.2-0.9,2.6-0.8,3.4,0.2
	c0.7,0.9,2,4.4,2.1,5c0.1,0.6,0.3,1.6-1.1,2.3c-0.3,0.1-0.6,0.2-1,0.3c-0.3,0.1-0.8,0.2-1,0.3c0.1,1,1.3,3.2,1.7,4l0.1,0.2
	c0.7,1.4,2.1,3.2,2.9,3.9c0,0,0.1,0.1,0.1,0.1c0,0,0.2-0.1,0.6-0.6c0.6-0.7,1.2-1.1,1.9-1.1c0.4,0,1.1,0.1,1.7,0.8
	c1,1.1,2.2,2.8,2.8,3.8c0.8,1.3-0.1,2.6-0.9,3.1c0,0-0.1,0-0.1,0.1C25,29.4,23.5,30,21.7,30z M25.4,28.1L25.4,28.1L25.4,28.1z
	 M25.4,28.1L25.4,28.1L25.4,28.1z M14.2,8c-0.1,0-0.3,0.1-0.6,0.2c-0.5,0.4-2.1,1.5-2.6,3.6c-0.9,4.4,4.3,12.6,7.3,15
	c2.6,2,5.4,0.9,6.5,0.4c0.1-0.1,0.3-0.3,0.2-0.4c-0.5-0.9-1.7-2.5-2.6-3.5c-0.1-0.1-0.2-0.1-0.2-0.1c0,0-0.2,0.1-0.4,0.3
	c-0.7,0.8-1.4,1.3-2.1,1.3c-0.6,0-1.1-0.2-1.5-0.6c-0.9-0.9-2.4-2.8-3.3-4.5l-0.1-0.2C14,17.8,13.1,16,13,14.8
	c-0.2-1.8,1.7-2.2,2.6-2.4c0.2,0,0.4-0.1,0.5-0.1c0,0,0,0,0,0c0,0,0-0.1,0-0.1c-0.1-0.5-1.3-3.6-1.7-4.1C14.2,8,14.2,8,14.2,8z"/>
</svg>
