<?xml version="1.0" encoding="UTF-8"?>
<svg width="340px" height="134px" viewBox="0 0 340 134" version="1.1" xmlns="http://www.w3.org/2000/svg" xmlns:xlink="http://www.w3.org/1999/xlink">
    <!-- Generator: sketchtool 54.1 (76490) - https://sketchapp.com -->
    <title>CD181546-C9E6-49D1-BC3C-A29B543A1520</title>
    <desc>Created with sketchtool.</desc>
    <g id="BASIC-ELEMENTS" stroke="none" stroke-width="1" fill="none" fill-rule="evenodd">
        <g id="BASICS_Logo" transform="translate(-161.000000, -297.000000)" fill-rule="nonzero">
            <g id="basics-/-logo-/-Rexroth_RGB" transform="translate(161.000000, 297.000000)">
                <g id="Rexroth-Logo_RGB">
                    <g id="A_Bosch_Company" transform="translate(0.000000, 99.000004)" fill="#002B49">
                        <path d="M3.95026488,27.9997676 L0,27.9997676 L10.0283629,1.56101785 L14.3643347,1.56101785 L24.2390979,27.9997676 L19.9420645,27.9997676 L17.733953,21.8271149 L6.15715525,21.8271149 L3.95026488,27.9997676 Z M16.611558,18.7165068 L11.9637464,5.70628024 L7.27953714,18.7165068 L16.611558,18.7165068 Z" id="Shape"></path>
                        <g id="Bosch" transform="translate(41.384136, 0.000000)">
                            <path d="M0.0911807801,1.56101785 L11.1638795,1.56101785 C17.0520075,1.56101785 20.1501427,3.96266015 20.1501427,8.54740631 C20.1501427,11.2442436 19.0641619,12.8366951 16.3544474,14.1665481 C19.9552064,15.2778464 21.5804123,17.2400115 21.5804123,20.4927474 C21.5804123,25.2586383 18.0951048,27.9997786 12.0160093,27.9997786 L0.0911807801,27.9997786 L0.0911807801,1.56101785 Z M11.7492615,12.8366878 C14.6890854,12.8366878 16.1208849,11.4696874 16.1208849,8.65904286 C16.1208849,5.92029649 14.5724126,4.6671099 11.1638897,4.6671099 L4.15562888,4.6671099 L4.15562888,12.8366878 L11.7492615,12.8366878 Z M12.2508676,24.8867789 C15.6556488,24.8867789 17.5546175,23.3033843 17.5546175,20.3810864 C17.5546175,17.458552 15.6167579,15.9403924 11.9379866,15.9403924 L4.15562888,15.9403924 L4.15562888,24.8867789 L12.2508676,24.8867789 Z" id="Shape"></path>
                            <path d="M45.0456146,18.26775 C45.0456146,24.1497267 40.943273,28.3647299 35.210963,28.3647299 C29.5187888,28.3647299 25.4152024,24.1892389 25.4152024,18.3794033 C25.4152024,12.4717201 29.5187888,8.28694534 35.3278868,8.28694534 C40.9432832,8.2869421 45.0456146,12.5088676 45.0456146,18.26775 Z M29.6332229,18.3420353 C29.6332229,22.6384569 31.7660426,25.2586441 35.172069,25.2586441 C38.6950531,25.2586441 40.8241346,22.6384569 40.8241346,18.3048877 C40.8241346,14.0922588 38.6950531,11.3975367 35.3278871,11.3975367 C31.7259135,11.3975529 29.6332331,13.9479863 29.6332331,18.3420353 L29.6332229,18.3420353 Z" id="Shape"></path>
                            <path d="M61.8887277,13.4273375 C60.3781796,11.983444 58.9454134,11.3975566 56.9317631,11.3975566 C54.689496,11.3975566 53.4491965,12.1696127 53.4491965,13.5806539 C53.4491965,15.1338101 54.37537,15.7173167 57.9397144,16.4193891 C60.1443355,16.8681499 61.4238075,17.2773823 62.4718641,17.9004173 C64.0985715,18.8637925 65.0591068,20.586393 64.9881146,22.4129995 C64.9881146,26.0678315 61.9276254,28.3647265 57.0110714,28.3647265 C53.2933852,28.3647265 50.7003468,27.2953278 48.4119602,24.8867763 L51.0059958,22.5617939 C52.6748552,24.5611033 54.1819162,25.2586408 56.8150937,25.2586408 C59.6038621,25.2586408 61.1168797,24.3380267 61.1168797,22.6384537 C61.1168797,21.0460152 60.2236133,20.5298751 56.1589245,19.6440212 C51.5512657,18.6791268 49.6535148,16.9797902 49.6535148,13.873711 C49.6535148,10.4350365 52.4789081,8.28693917 57.0499453,8.28693917 C60.1832332,8.28693917 62.2370227,9.02638267 64.2516703,10.9095136 L61.8887277,13.4273375 Z" id="Shape"></path>
                            <path d="M87.1716117,23.6707306 C85.2761097,26.8513383 82.5237662,28.3647361 78.6916699,28.3647361 C72.9628504,28.3647361 69.012833,24.3009049 69.012833,18.3794097 C69.012833,12.3974574 72.8850685,8.28694877 78.6161302,8.28694877 C82.2572558,8.28694877 84.8512914,9.69584879 86.7478008,12.7669313 L83.494058,14.5712581 C81.9845038,12.137 80.8596321,11.3975597 78.7305506,11.3975597 C75.2100904,11.3975597 73.1553036,13.9479931 73.1553036,18.3420386 C73.1553036,22.7827325 75.1674817,25.2586504 78.8085868,25.2586504 C81.2091584,25.2586504 82.6027862,24.3751774 84.0355389,21.9666324 L87.1716117,23.6707306 Z" id="Shape"></path>
                            <path d="M91.468828,0.154511642 L95.5322753,0.154511642 L95.5322753,11.6580166 C96.7750715,9.39826608 98.8276127,8.28694192 101.616357,8.28694192 C105.874514,8.28694192 108.277585,11.0209331 108.277585,15.87301 L108.277585,27.9997735 L104.206909,27.999767 L104.206909,16.0520426 C104.206909,12.9483378 103.006746,11.5463504 100.338171,11.5463504 C97.3948566,11.5463504 95.5322855,13.4273401 95.5322855,16.4193916 L95.5322855,27.9997735 L91.468828,27.9997735 L91.468828,0.154511642 Z" id="Shape"></path>
                        </g>
                        <g id="Company" transform="translate(166.554191, 0.971771)">
                            <path d="M23.8643529,19.5952602 C22.7005868,22.4758852 21.6171026,23.9892862 19.7996538,25.3260484 C17.9031782,26.6932788 15.5380035,27.3929639 12.7101202,27.3929639 C5.1237124,27.3929639 0.0877174097,22.0340305 0.0877174097,13.8596942 C0.0877174097,5.76224765 5.24188446,0.180010927 12.6759579,0.180010927 C15.9274486,0.180010927 18.5605923,1.10538665 20.4959622,2.87685775 C21.8167879,4.09981901 22.5472586,5.24135879 23.5527133,7.72442564 L19.9165741,9.0542785 C18.4825595,5.02281713 16.346273,3.360612 12.7101134,3.360612 C7.48888031,3.360612 4.31295983,7.3151771 4.31295983,13.8225563 C4.31295983,20.3299355 7.48888031,24.217131 12.7878885,24.217131 C16.5860703,24.217131 18.8308341,22.4061315 20.1868295,18.2258789 L23.8643529,19.5952602 Z" id="Shape"></path>
                            <path d="M46.9765329,17.2959818 C46.9765329,23.1779615 42.8729431,27.3929647 37.1456196,27.3929647 C31.4534489,27.3929647 27.3498591,23.2174737 27.3498591,17.4076383 C27.3498591,11.4999552 31.4534489,7.31517735 37.2575806,7.31517735 C42.8729464,7.31517087 46.9765329,11.5371028 46.9765329,17.2959818 Z M31.5678796,17.3702675 C31.5678796,21.6666923 33.7016966,24.2868795 37.1042358,24.2868795 C40.6284342,24.2868795 42.758513,21.6666923 42.758513,17.3331232 C42.758513,13.1204942 40.6284342,10.4257721 37.257581,10.4257721 C33.6628056,10.4257883 31.5678796,12.9762218 31.5678796,17.3702675 Z" id="Shape"></path>
                            <path d="M56.5072344,10.6095764 C57.7415536,8.42649203 59.6053696,7.31518078 62.1229023,7.31518078 C64.7924471,7.31518078 66.5719989,8.42649203 67.7345234,10.7931505 C69.3634947,8.42650499 71.3390139,7.31518078 74.0050852,7.31518078 C78.0732815,7.31518078 80.4396943,10.1260586 80.4396943,14.9012491 L80.4396943,27.0280067 L76.370253,27.0280067 L76.370253,15.0431504 C76.370253,11.9765834 75.2892587,10.5745959 72.9240874,10.5745959 C70.2131246,10.5745959 68.472216,12.4974852 68.472216,15.4173958 L68.472216,27.0280067 L64.4052748,27.0280067 L64.4052748,15.0431504 C64.4052748,12.0137277 63.2828963,10.5745959 60.9199638,10.5745959 C58.2481463,10.5745959 56.5072344,12.4974852 56.5072344,15.4173958 L56.5072344,27.0280067 L52.4402931,27.0280067 L52.4402931,7.68728175 L56.5072344,7.68728175 L56.5072344,10.6095764 Z" id="Shape"></path>
                            <path d="M87.0233332,7.68728117 L91.0830489,7.68728117 L91.0830489,10.79314 C92.6314906,8.50100359 94.840864,7.3151705 97.6298426,7.3151705 C102.780271,7.3151705 106.187539,11.2721229 106.187539,17.2959745 C106.187539,23.4405428 102.816686,27.392957 97.6298426,27.392957 C94.760572,27.392957 92.5195533,26.2118953 91.0830489,23.9892826 L91.0830489,33.7539258 L87.0233332,33.7539258 L87.0233332,7.68728117 Z M90.9686117,17.3702702 C90.9686117,21.7735865 93.0209053,24.2868788 96.6181533,24.2868788 C100.222644,24.2868788 102.049801,21.9969028 102.049801,17.4447759 C102.049801,13.0135989 100.066846,10.4257879 96.6962201,10.4257879 C93.0989381,10.4257879 90.9686117,13.0135989 90.9686117,17.3702702 L90.9686117,17.3702702 Z" id="Shape"></path>
                            <path d="M128.744765,27.1022854 C128.26781,27.1627916 127.787938,27.2000577 127.307012,27.2139387 C124.947821,27.2139387 123.553946,26.3235694 122.857634,24.3613978 C121.155867,26.4747414 119.216759,27.3929681 116.665353,27.3929681 C112.868409,27.3929681 110.310771,25.1772582 110.310771,21.9223813 C110.310771,19.1162619 112.090574,17.151716 115.53674,16.1939706 C117.476099,15.6709276 119.14123,15.4847556 122.589879,15.4173827 L122.589879,14.4129696 C122.589879,11.6463689 121.42387,10.4257917 118.793186,10.4257917 C116.699257,10.4257917 115.035371,11.090723 113.021734,12.7112522 L110.931794,10.2003375 C113.372509,8.17080926 115.77059,7.31518078 119.060965,7.31518078 C123.97777,7.31518078 126.652081,9.79348602 126.652081,14.3434523 L126.652081,22.4758828 C126.652081,23.7009885 127.190075,24.2868759 128.277314,24.2868759 C128.433846,24.2897669 128.590323,24.2788485 128.744751,24.25426 L128.744765,27.1022854 Z M122.589878,18.0399638 C117.088954,18.0794825 114.339433,19.2992716 114.341314,21.699331 C114.341314,23.4034196 115.536739,24.3985491 117.629423,24.3985491 C120.530356,24.3985491 122.589878,22.7780134 122.589878,20.4835057 L122.589878,18.0399638 Z" id="Shape"></path>
                            <path d="M133.751791,7.68728441 L137.81649,7.68728441 L137.81649,10.6862452 C139.063021,8.42649465 141.111824,7.3151705 143.898079,7.3151705 C148.157483,7.3151705 150.560552,10.0491616 150.560552,14.9012385 L150.560552,27.0280019 L146.493373,27.0279986 L146.493373,15.0802712 C146.493373,11.9765664 145.295706,10.5745757 142.616405,10.5745757 C139.682562,10.5745757 137.816504,12.4555687 137.816504,15.4476169 L137.816504,27.0280019 L133.751791,27.0280019 L133.751791,7.68728441 Z" id="Shape"></path>
                            <path d="M164.416263,29.4644074 C163.254957,32.5357327 161.320584,34.0119958 158.453806,34.0119958 C156.989586,34.04512 155.552335,33.6322971 154.350216,32.8333182 L155.663813,30.1317098 C156.395574,30.6407008 157.278293,30.9135028 158.183595,30.9104419 C159.657708,30.9104419 160.587871,30.1688541 161.084491,28.576406 L161.671396,26.8046952 L154.004679,7.68728122 L158.337124,7.68728122 L163.644615,21.6271722 L168.600328,7.68728446 L172.660044,7.68728122 L164.416263,29.4644074 Z" id="Shape"></path>
                        </g>
                    </g>
                    <g id="rexroth">
                        <g id="r" transform="translate(0.000000, 22.854174)">
                            <polygon id="Shape" fill="#00CCFF" points="15.9624654 56.1547511 15.9624654 41.3861792 8.02006958 36.9309797 0 37.8697064 0 56.1547511"></polygon>
                            <path d="M15.9626145,28.5534351 C15.9626145,20.1658271 20.4492845,14.9217357 27.4397765,14.9217357 C30.049479,14.9217357 31.7169208,15.4409006 34.0138253,16.801969 L37.9786125,2.32823655 C35.474794,0.756476562 33.0742849,0.124845186 30.0494959,0.124845186 C23.8941698,0.124845186 19.5106566,3.37608336 15.9626145,10.6130281 L15.9626145,1.28024306 L0,1.28024306 L0,37.8698367 C2.87005199,38.5914488 8.35377492,39.8939047 15.9626145,41.3862482 L15.9626145,28.5534351 Z" id="Shape" fill="#002B49"></path>
                        </g>
                        <g id="e" transform="translate(36.971349, 22.513066)">
                            <path d="M28.5301163,57.6466103 C36.9946595,57.6466103 43.7477922,55.0025325 48.6932022,49.9004372 L27.295609,46.9959105 L5.01099842,46.0163193 C9.72148768,53.0670501 17.7729388,57.6466103 28.5301163,57.6466103 Z" id="Shape" fill="#00CCFF"></path>
                            <path d="M48.6932038,49.900434 C50.0670249,48.4934543 51.282313,46.9383538 52.317017,45.2633498 L39.9038008,39.074399 C36.9824738,43.799465 33.953879,45.5817698 28.7396159,45.5817698 C16.5427737,45.5817698 16.3886439,33.5562592 16.3201757,33.0956896 L53.3613933,33.0956896 L53.3613933,28.7917134 C53.3613933,10.9541241 43.7622498,0.250498801 27.7997838,0.250498801 C11.6265913,0.250498801 0.254108495,12.3200805 0.254108495,29.5263352 C0.254108495,35.7102342 1.92017668,41.39011 5.01100205,46.01633 C17.6110491,47.7221279 32.4048303,49.2017718 48.6932038,49.900434 Z M27.6963198,12.1095256 C34.0585737,12.1095256 36.9824852,15.4686389 37.815063,23.3323269 L16.6354482,23.3323269 C18.097326,15.5714724 21.4349435,12.1095324 27.6963198,12.1095324 L27.6963198,12.1095256 Z" id="Shape" fill="#002B49"></path>
                        </g>
                        <g id="x" transform="translate(88.866916, 23.877496)">
                            <polygon id="Shape" fill="#A3BAC8" points="38.8860587 55.1314301 57.562017 55.1314301 51.8131418 46.551564 42.3566169 45.0083957 34.6262131 48.2779069"></polygon>
                            <polygon id="Shape" fill="#5A7C91" points="16.6622068 55.1314294 20.6401882 48.9086134 12.8100636 47.0287724 4.46505355 48.8035524 0.176037897 55.1314294"></polygon>
                            <path d="M20.6402264,48.908442 L27.9299897,37.5043222 L34.6262136,48.2778749 C40.3489716,47.8665714 46.0816203,47.2779264 51.8132006,46.5514195 L37.9466377,25.8556832 L55.6851898,0.256921842 L39.1977991,0.256921842 L29.4965608,15.8863791 L19.7930398,0.256921842 L1.42763678,0.256921842 L19.1661719,27.113918 L4.46520633,48.8036334 C8.38571617,48.9069161 12.3776373,48.9612863 16.4409696,48.966744 C17.838507,48.9667406 19.2398161,48.9335372 20.6402264,48.908442 Z" id="Shape" fill="#002B49"></path>
                        </g>
                        <g id="r-2" transform="translate(151.616455, 22.854174)">
                            <polygon id="Shape" fill="#A3BAC8" points="15.9872252 56.1547511 15.9872252 43.2568103 7.18431315 42.2307602 0.0305268023 46.0317164 0.0305268023 56.1547511"></polygon>
                            <path d="M15.9871983,28.5534345 C15.9871983,20.1658267 20.4763037,14.9217354 27.4631425,14.9217354 C30.0678385,14.9217354 31.7378648,15.4409003 34.0359734,16.8019687 L37.9993936,2.3282365 C35.4919187,0.756476544 33.0965857,0.124834947 30.067852,0.124834947 C23.9137437,0.124834947 19.5317535,3.37607306 15.9871949,10.6130176 L15.9871949,1.28024303 L0.0306658703,1.28024303 L0.0306658703,46.0315968 C5.36315211,45.2011887 10.6842247,44.2638265 15.9871949,43.2566909 L15.9871983,28.5534345 Z" id="Shape" fill="#002B49"></path>
                        </g>
                        <g id="o" transform="translate(188.248619, 22.513066)">
                            <path d="M56.0778943,28.7894357 C56.0778943,28.0303361 56.0457902,27.2573091 55.9856898,26.4764809 L47.9833866,25.5431199 L39.8029086,30.1212541 C39.7231828,33.8007759 38.7357119,44.280543 29.2692449,45.0806506 L28.1234722,51.3505393 L30.6039446,57.5333843 C45.6574307,56.3908258 56.0778943,44.8948939 56.0778943,28.7894357 Z" id="Shape" fill="#5A7C91"></path>
                            <path d="M28.1221682,45.158384 C20.9865216,45.158384 18.2569235,39.9635657 17.2043187,35.4233387 L8.83401895,35.4233387 L1.60580486,38.990551 C6.23473642,54.7128781 21.9183047,57.6466103 28.1221682,57.6466103 C28.9653863,57.6466103 29.7871712,57.5953521 30.603926,57.5333627 L29.2692264,45.0806355 C28.8919219,45.1124813 28.5268926,45.158384 28.1221682,45.158384 Z" id="Shape" fill="#00CCFF"></path>
                            <path d="M16.5378912,29.0048618 C16.5378912,18.2987904 20.6082704,12.7388784 28.4337752,12.7388784 C35.7370886,12.7388784 39.8074712,18.5042699 39.8074712,28.8945409 C39.8074712,29.0394432 39.8166021,29.4909871 39.8029058,30.121254 C45.2782652,28.8495568 50.6725251,27.6346267 55.9856855,26.4764637 C55.0572501,14.4018333 46.8604953,0.250498801 28.5398254,0.250498801 C11.8442938,0.250498801 0.26123482,12.2174076 0.26123482,29.3182368 C0.239695066,32.5909174 0.692647155,35.8492783 1.60580474,38.9905491 C6.84639046,37.8270307 12.0458962,36.6379599 17.2043218,35.4233368 C16.7392603,33.3164456 16.5156599,31.1629231 16.5378912,29.0048618 L16.5378912,29.0048618 Z" id="Shape" fill="#002B49"></path>
                        </g>
                        <g id="t" transform="translate(245.910345, 7.504356)">
                            <path d="M24.6814655,72.6553202 C29.8961861,72.6553202 33.9664127,71.2892137 37.7251879,68.3562422 L33.8593111,57.6524666 C31.8776807,58.8081782 30.2125217,59.3319447 28.3331358,59.3319447 C25.2022969,59.3319447 23.7417862,57.4419183 23.7417862,53.3535422 L23.7417862,36.6471795 L15.6246859,35.3984923 L7.77672348,39.5200172 L7.77672348,55.3463953 C7.77672348,66.363239 13.9357024,72.6553202 24.6814655,72.6553202 Z" id="Shape" fill="#5A7C91"></path>
                            <path d="M23.7417728,29.1112509 L35.2175644,29.1112509 L35.2175644,16.6300613 L23.7417728,16.6300613 L23.7417728,0.0508556524 L7.77672325,5.60831875 L7.77672325,16.6300613 L0.268913994,16.6300613 L0.268913994,29.1112509 L7.77672325,29.1112509 L7.77672325,39.5200173 C13.2108333,38.4352968 18.5390729,37.46351 23.7417728,36.6471828 L23.7417728,29.1112509 Z" id="Shape" fill="#002B49"></path>
                        </g>
                        <g id="h" transform="translate(288.987065, 0.000000)">
                            <path d="M34.2392993,45.6397504 L34.2392993,79.0090127 L50.1996316,79.0090127 L50.1996316,46.0414107 L42.1447579,41.4506896 L34.0898841,43.1861741 C34.1879758,44.0003341 34.2378688,44.8196371 34.2392993,45.6397504 Z" id="Shape" fill="#DF0024"></path>
                            <path d="M16.0808207,79.0090127 L16.0808207,46.6924851 C16.0509918,44.9589709 16.3050841,43.2323388 16.8329095,41.5818213 L8.18340467,39.3428627 L0.120791166,41.8612255 L0.120791166,79.0090127 L16.0808207,79.0090127 Z" id="Shape" fill="#00CCFF"></path>
                            <path d="M16.8329107,41.5818227 C18.9307805,35.3719104 24.8044769,35.2543956 26.0986879,35.2543956 C26.524564,35.2543956 33.0619436,34.3635467 34.0898862,43.1861755 C39.5585495,43.9530798 44.944899,44.9293078 50.1996339,46.0414124 C50.1996339,32.6759569 46.2327164,22.7635831 32.9881501,22.7635831 C25.26611,22.7635831 19.7326315,26.024461 16.0808218,32.732591 L16.0808218,0 L0.120791166,0 L0.120791166,41.861227 C3.80501013,41.599881 7.4122405,41.450691 10.9222464,41.450691 C12.8930738,41.450691 14.8637554,41.5019525 16.8329107,41.5818227 Z" id="Shape" fill="#002B49"></path>
                        </g>
                    </g>
                </g>
            </g>
        </g>
    </g>
</svg>