<?xml version="1.0" encoding="utf-8"?>
<!-- Generator: Adobe Illustrator 24.3.0, SVG Export Plug-In . SVG Version: 6.00 Build 0)  -->
<svg version="1.1" id="Layer_1" xmlns="http://www.w3.org/2000/svg" xmlns:xlink="http://www.w3.org/1999/xlink" x="0px" y="0px"
	 viewBox="0 0 80 80" style="enable-background:new 0 0 80 80;" xml:space="preserve">
<style type="text/css">
	.st0{fill:#D22328;}
	.st1{fill:url(#SVGID_1_);}
	.st2{fill:#CCCCCC;}
	.st3{fill:#FFFFFF;}
</style>
<path class="st0" d="M64,80H16C7.2,80,0,72.8,0,64V16C0,7.2,7.2,0,16,0h48c8.8,0,16,7.2,16,16v48C80,72.8,72.8,80,64,80z"/>
<radialGradient id="SVGID_1_" cx="35.2332" cy="42.8286" r="70.8764" gradientTransform="matrix(1 0 0 -1 0 80)" gradientUnits="userSpaceOnUse">
	<stop  offset="0.436" style="stop-color:#931B1D;stop-opacity:0.502"/>
	<stop  offset="0.667" style="stop-color:#AC1F24;stop-opacity:0.329"/>
	<stop  offset="0.7831" style="stop-color:#C02026;stop-opacity:0.153"/>
	<stop  offset="0.89" style="stop-color:#C52127;stop-opacity:0"/>
</radialGradient>
<path class="st1" d="M80,64V33.4L65,15.2L29.2,28.1l-10.5,8.5l-0.3,13.7l3.9,8.6L15,65.2L27.5,80H64C72.8,80,80,72.8,80,64z"/>
<path class="st2" d="M15,15.2v50h50v-50C65,15.2,15,15.2,15,15.2z M37.7,47.4L27.4,57.7c-0.4,0.4-1,0.7-1.5,0.7s-1.1-0.2-1.5-0.7
	c-0.9-0.9-0.9-2.2,0-3.1l8.8-8.8L24.4,37c-0.9-0.9-0.9-2.2,0-3.1c0.9-0.9,2.2-0.9,3.1,0l10.3,10.3c0.4,0.4,0.7,1,0.7,1.5
	S38.1,47,37.7,47.4z M54.6,58.4H42c-1.2,0-2.2-1-2.2-2.2s1-2.2,2.2-2.2h12.6c1.2,0,2.2,1,2.2,2.2S55.8,58.4,54.6,58.4z"/>
<rect x="15.1" y="15.2" class="st3" width="49.8" height="11.7"/>
</svg>
