<?xml version="1.0" encoding="UTF-8"?>
<svg id="Layer_1" data-name="Layer 1" xmlns="http://www.w3.org/2000/svg" viewBox="0 0 80 80">
  <defs>
    <style>
      .cls-1 {
        fill: #ddd;
      }

      .cls-1, .cls-2, .cls-3, .cls-4 {
        stroke-width: 0px;
      }

      .cls-2 {
        fill: #fff;
      }

      .cls-3 {
        fill: #eee;
      }

      .cls-4 {
        fill: #aaa;
      }
    </style>
  </defs>
  <path class="cls-2" d="M69.06,68.26c-2.29,0-4.41.02-6.52-.03-.23,0-.51-.37-.67-.63-.1-.18-.02-.47-.02-.71,0-13.59,0-27.18,0-40.76,0-.35-.06-.7-.33-1.08-6.24,14.33-12.49,28.66-18.79,43.12-2.21-.96-4.31-1.88-6.58-2.87,6.38-14.64,12.72-29.21,19.13-43.92,2.17.94,4.25,1.84,6.57,2.84,0-1.08.03-1.98-.01-2.88-.04-.79.25-1.11,1.06-1.09,1.64.04,3.28.07,4.92,0,1-.05,1.26.3,1.26,1.28-.03,13.9-.02,27.79-.02,41.69,0,1.64,0,3.27,0,5.05Z"/>
  <path class="cls-1" d="M61.85,24.21c0-1.08.03-1.98-.01-2.88-.04-.79.25-1.11,1.06-1.09,1.64.04,3.28.07,4.92,0,1-.05,1.26.3,1.26,1.28-.03,13.9-.02,27.79-.02,41.69,0,1.64,0,3.27,0,5.05-2.29,0-4.41.02-6.52-.03-.23,0-.51-.37-.67-.63-.1-.18-.02-.47-.02-.71,0-13.59,0-27.18,0-40.76,0-.35-.06-.7-.33-1.08-6.24,14.33-12.49,28.66-18.79,43.12-2.21-.96-4.31-1.88-6.58-2.87l25.69-41.08Z"/>
  <path class="cls-2" d="M21.2,68.26c-1.82-1.45-3.54-2.79-5.21-4.19-.13-.11,0-.75.19-1,1.6-2.09,3.25-4.14,4.88-6.2,7.82-9.89,15.65-19.78,23.47-29.67.21-.26.43-.52.75-.91,1.88,1.49,3.7,2.94,5.6,4.45-9.93,12.55-19.77,25-29.68,37.53Z"/>
  <path class="cls-2" d="M18.54,28.96c1.14-1.16,2.08-2.21,3.12-3.14.74-.66.59-1.06-.05-1.66-2.85-2.72-5.66-5.48-8.48-8.23-.23-.23-.42-.5-.74-.87,1.14-1,2.23-1.95,3.44-3.02.99.95,2.15,2.05,3.29,3.16,1.96,1.9,3.93,3.78,5.86,5.71.58.58.98.63,1.55-.01.79-.89,1.67-1.7,2.65-2.69,1.28,4.78,2.48,9.3,3.76,14.09-4.85-1.12-9.48-2.2-14.4-3.34Z"/>
  <path class="cls-3" d="M50.89,30.74c-9.93,12.55-19.77,25-29.68,37.53-1.82-1.45-3.54-2.79-5.21-4.19L50.89,30.74Z"/>
  <polygon class="cls-4" points="69.06 20.98 69.06 68.26 61.78 68.26 69.06 20.98"/>
</svg>