<!-- BE AWARE: THIS SVG WAS HEAVILY MODIFIED BY HAND -->
<?xml version="1.0" encoding="utf-8"?>
<!-- Generator: Adobe Illustrator 26.3.1, SVG Export Plug-In . SVG Version: 6.00 Build 0)  -->
<svg version="1.1" id="Layer_1" xmlns="http://www.w3.org/2000/svg" xmlns:xlink="http://www.w3.org/1999/xlink" x="0px" y="0px"
	 viewBox="0 0 304 237" style="enable-background:new 0 0 304 237;" xml:space="preserve">
<style type="text/css">
	.st0{fill-rule:evenodd;clip-rule:evenodd;fill:#DDDDDD;stroke:#CCCCCC;stroke-width:2;stroke-miterlimit:10;}
	.st1{fill-rule:evenodd;clip-rule:evenodd;fill:#EEEEEE;stroke:#CCCCCC;stroke-miterlimit:10;pointer-events:none;}
	.st2{enable-background:new    ;}
	.st3{fill:#CCCCCC;pointer-events:none;}
	.st4{fill-rule:evenodd;clip-rule:evenodd;fill:#EEEEEE;stroke:#CCCCCC;stroke-width:2;stroke-miterlimit:10;}
	.st5{fill-rule:evenodd;clip-rule:evenodd;fill:#DDDDDD;stroke:#CCCCCC;stroke-miterlimit:10;}
	.st6{fill:#AAAAAA;}
	.button{cursor:pointer;}
	.button:hover{stroke:#888}
	.button.st-active{stroke:#f89b11;}
</style>
<g>
	<path marker-end="none" marker-start="none" class="st0 button button1 st-active" d="M4,177.2l1.4-2l1.7-1.2l3.5-1l34.5-5.8l3.6-0.1l1.3,0.4l2.2,1.5l0.8,1
		l1.1,2.4l0.8,3.4l1.4,4.8l1.7,5l2.3,5.7l2.4,5.1l2,3.8l1.6,2.7l1.5,3.5l-0.1,2.6l-1,2.4l-1.9,1.9l-30,20.6l-2.1,1.3l-3.5,0.5
		l-2.2-0.6l-1.7-1.2l-1.4-1.7l-7-12.5l-6.1-13.9l-2.7-7.3L6,192.1L4.1,185l-0.8-4.1l0.1-2L4,177.2z"/>
	<path class="st1 button button1 st-active" d="M29.5,228.8c-9.9-13.8-16.8-31.7-19.7-47.5c16.8-3,35.7-5.9,35.7-5.9c2.9,11.8,7.9,23.7,14.4,33.1
		C52.3,214,29.5,228.8,29.5,228.8z"/>
	<g class="st2">
		<path class="st3" d="M31.3,198.9l0.7,1.8l-7,2.8l1.5,1.9L25,206l-2.9-3.3l-0.1-0.2L31.3,198.9z"/>
	</g>
	<path marker-end="none" marker-start="none" class="st0 button button2" d="M13.5,94.6l2.2-0.9l2-0.1l3.4,1l32.3,13.5l3.1,1.8l0.9,1l1.1,2.4
		l0.2,1.3l-0.4,2.6l-1.1,3.4l-1.4,4.8l-1.2,5.2l-1.1,6l-0.7,5.6l-0.3,4.3l-0.1,3.1l-0.6,3.7l-1.5,2.2l-2.2,1.5l-2.6,0.6l-36.3,1.5
		H6.8l-3.2-1.5L2.1,156l-0.8-1.9L1,151.9l0.7-14.4l2.2-15l1.6-7.6l1.9-6.6l2.1-7.1l1.5-3.9l1.1-1.7L13.5,94.6z"/>
	<path class="st1 button button2" d="M7.7,151.9c-1-16.9,2.6-35.8,8.5-50.8c15.8,6.5,33.3,14.1,33.3,14.1c-3.8,11.6-5.9,24.3-5.4,35.7
		C34.9,151.6,7.7,151.9,7.7,151.9z"/>
	<g>
		<g class="st2">
			<path class="st3" d="M25.6,125.5l-1.2,6.7l-1.3-0.2l-2.8-3.8c-0.4-0.5-0.7-0.9-1.1-1.2c-0.3-0.3-0.6-0.4-0.9-0.5
				c-0.4-0.1-0.8,0-1.1,0.1c-0.3,0.2-0.5,0.5-0.5,0.9c-0.1,0.4,0,0.8,0.3,1.1s0.6,0.5,1.1,0.6l-0.4,1.9c-0.6-0.1-1.1-0.3-1.5-0.7
				s-0.7-0.8-0.9-1.4c-0.2-0.6-0.2-1.2-0.1-1.8c0.2-1,0.6-1.7,1.1-2.2c0.6-0.5,1.3-0.6,2.2-0.5c0.5,0.1,0.9,0.3,1.4,0.6
				c0.5,0.3,1,0.9,1.5,1.6l1.9,2.6l0.8-4.2L25.6,125.5z"/>
		</g>
	</g>
	<path marker-end="none" marker-start="none" class="st0 button button3" d="M63.8,30.3l2.4,0.4l1.8,1l2.4,2.7l20.5,28.4l1.7,3.2l0.2,1.3l-0.3,2.6
		L92,71.1l-1.7,2l-2.7,2.3l-3.7,3.4L80,82.6l-4,4.6l-3.5,4.4L69.9,95l-1.7,2.6l-2.4,2.9l-2.4,1.1l-2.6,0.2l-2.5-0.8L26.5,83.2
		l-2.1-1.3l-2-2.9L22,76.7l0.3-2.1l0.9-2l8.1-11.9L41,49.1l5.3-5.7l5-4.6l5.5-4.9l3.3-2.5l1.8-0.8L63.8,30.3z"/>
	<path class="st1 button button3" d="M29,76.2c8-15,20.9-29.1,33.7-38.8c10.1,13.8,21.1,29.5,21.1,29.5c-9.3,7.9-17.7,17.6-23.2,27.6
		C52.3,90.1,29,76.2,29,76.2z"/>
	<g>
		<g class="st2">
			<path class="st3" d="M50.4,62.7l0.7-0.8c0.3-0.4,0.5-0.7,0.5-1.1c0-0.3-0.2-0.7-0.5-0.9c-0.3-0.3-0.6-0.4-0.9-0.4
				c-0.3,0-0.6,0.2-0.9,0.5c-0.2,0.3-0.4,0.6-0.4,0.9c0,0.3,0.1,0.6,0.3,0.8l-1.3,1.5c-0.4-0.3-0.6-0.8-0.8-1.2
				c-0.1-0.5-0.1-1,0.1-1.5c0.2-0.5,0.4-1,0.8-1.5c0.7-0.8,1.4-1.2,2.2-1.3s1.5,0.1,2.1,0.7c0.3,0.3,0.6,0.7,0.6,1.1
				c0.1,0.5,0.1,0.9-0.1,1.4c0.5-0.3,1-0.4,1.5-0.3c0.5,0.1,0.9,0.3,1.3,0.6c0.7,0.6,1,1.3,0.9,2.1c0,0.8-0.4,1.6-1.1,2.4
				c-0.7,0.7-1.4,1.2-2.2,1.3c-0.8,0.1-1.5-0.1-2.2-0.7l1.3-1.5c0.3,0.2,0.6,0.3,1,0.3s0.7-0.2,0.9-0.5c0.3-0.3,0.5-0.7,0.5-1.1
				c0-0.4-0.2-0.7-0.5-1c-0.7-0.7-1.5-0.6-2.2,0.2l-0.7,0.8L50.4,62.7z"/>
		</g>
	</g>
	<path marker-end="none" marker-start="none" class="st0 button button4" d="M141.9,2.1l1.8,1.6l1,1.8l0.6,3.6l2,35l-0.3,3.6l-0.5,1.2l-1.7,2
		l-1.1,0.7l-2.5,0.8l-3.5,0.5l-4.9,0.8l-5.2,1.2l-5.9,1.7l-5.3,1.8l-4,1.6l-2.9,1.3l-3.6,1.1l-2.6-0.3l-2.3-1.3l-1.7-2.1L82.2,26.6
		l-1-2.2l-0.1-3.6l0.9-2.1l1.3-1.6l1.8-1.2l13.2-5.7l14.4-4.6l7.5-1.9l6.7-1.2l7.3-1.2l4.1-0.4l2,0.3L141.9,2.1z"/>
	<path class="st1 button button4" d="M88,21.9c14.8-8.3,33.2-13.3,49.3-14.6c1.1,17.1,2,36.2,2,36.2c-12,1.6-24.4,5.3-34.4,10.8
		C100.2,46.3,88,21.9,88,21.9z"/>
	<g>
		<g class="st2">
			<path class="st3" d="M117.6,23.1l1.1-0.3l0.4,1.5l-1.1,0.3l0.6,2.1l-1.9,0.5l-0.6-2.1l-3.9,1.1l-0.4-1.2l2.2-7.4l1.9-0.5
				L117.6,23.1z M113.6,24.2l2.1-0.6l-0.9-3.4l-0.1,0.2L113.6,24.2z"/>
		</g>
	</g>
	<path marker-end="none" marker-start="none" class="st0 button button5" d="M222.5,20l0.7,2.3l-0.1,2l-1.4,3.3l-16.9,30.7l-2.2,2.9l-1.1,0.7
		l-2.5,0.8h-1.3l-2.5-0.7l-3.2-1.5l-4.6-1.9l-5-1.8l-5.9-1.7l-5.5-1.3l-4.2-0.8l-3.1-0.4l-3.6-1l-2-1.7l-1.3-2.3l-0.3-2.6L159,8.7
		l0.3-2.4l1.8-3.1l1.9-1.3l2-0.6h2.2l14.2,2.3l14.7,3.9l7.4,2.4l6.3,2.6l6.8,2.9l3.7,1.9l1.5,1.3L222.5,20z"/>
	<path class="st1 button button5" d="M166.3,8c16.9,0.9,35.2,6.5,49.4,14.1c-8.1,15.1-17.6,31.7-17.6,31.7c-11-5.1-23.4-8.6-34.8-9.3
		C163.7,35.1,166.3,8,166.3,8z"/>
	<g>
		<g class="st2">
			<path class="st3" d="M185.7,22.1l2-4.6l5.3,1.6l-0.5,1.6l-3.8-1.1l-0.8,2c0.5-0.1,1-0.1,1.5,0.1c0.9,0.3,1.5,0.8,1.9,1.5
				c0.3,0.7,0.4,1.6,0.1,2.6c-0.2,0.6-0.5,1.1-0.9,1.5s-0.9,0.7-1.4,0.8c-0.6,0.1-1.2,0.1-1.8-0.1s-1.1-0.4-1.5-0.8
				s-0.7-0.8-0.9-1.3s-0.2-1,0-1.6l1.9,0.6c-0.1,0.4,0,0.8,0.1,1c0.2,0.3,0.4,0.5,0.8,0.6c0.4,0.1,0.8,0.1,1.1-0.2
				c0.3-0.2,0.6-0.6,0.7-1.2c0.2-0.5,0.2-1,0-1.4s-0.5-0.6-1-0.8c-0.4-0.1-0.8-0.1-1.2,0l-0.2,0.1L185.7,22.1z"/>
		</g>
	</g>
	<path marker-end="none" marker-start="none" class="st0 button button6" d="M281.2,77l-0.6,2.4l-1.2,1.7l-2.9,2.1L246,100.3l-3.4,1.3l-1.3,0.1
		l-2.6-0.6l-1.1-0.7l-1.8-1.9l-2-2.9l-2.9-4.1l-3.3-4.1l-4.1-4.6l-4-4l-3.2-2.9l-2.4-2l-2.6-2.7l-0.8-2.5l0.1-2.6l1.1-2.4L233,33.9
		l1.5-1.9l3.1-1.6l2.3-0.2l2,0.5l1.9,1.1l10.9,9.4l10.5,11l5,5.9l4,5.5l4.2,6l2.1,3.6l0.6,1.9L281.2,77z"/>
	<path class="st1 button button6" d="M239.7,37.1c13.9,9.6,26.5,24.1,34.7,38c-14.8,8.5-31.6,17.7-31.6,17.7c-6.7-10.1-15.4-19.6-24.7-26.2
		C223.3,58.8,239.7,37.1,239.7,37.1z"/>
	<g>
		<g class="st2">
			<path class="st3" d="M256,59.7l-1.2,1.1l-0.1-0.1c-0.6-0.7-1.2-1-1.9-1.1s-1.4,0.1-2,0.5c0.7,0,1.4,0.4,1.9,1
				c0.6,0.6,0.8,1.4,0.7,2.1c-0.1,0.8-0.6,1.5-1.3,2.2c-0.5,0.4-1,0.7-1.6,0.8c-0.6,0.1-1.1,0.1-1.7-0.1c-0.6-0.2-1-0.5-1.5-1
				c-0.7-0.8-1-1.6-0.9-2.6s0.6-1.8,1.5-2.6l0.5-0.5c0.8-0.7,1.6-1.2,2.5-1.4s1.7-0.2,2.6,0c0.8,0.3,1.6,0.8,2.3,1.5L256,59.7z
				 M251,61.6c-0.2-0.2-0.5-0.4-0.8-0.5s-0.6-0.1-0.9,0l-0.4,0.4c-0.5,0.4-0.8,0.9-0.9,1.3c-0.1,0.4,0,0.8,0.3,1.2
				c0.3,0.3,0.6,0.5,1,0.4c0.4,0,0.8-0.2,1.2-0.6s0.6-0.7,0.7-1.2C251.4,62.3,251.3,61.9,251,61.6z"/>
		</g>
	</g>
	<path marker-end="none" marker-start="none" class="st0 button button7" d="M301.5,157.2l-1.8,1.7l-1.9,0.8l-3.6,0.2l-35-1.5l-3.5-0.6l-1.2-0.7
		l-1.8-1.9l-0.6-1.2l-0.5-2.6l-0.1-3.5l-0.3-5l-0.6-5.3l-1.1-6l-1.3-5.5L247,122l-1-3l-0.7-3.7l0.6-2.6l1.5-2.2l2.2-1.5l33.6-13.9
		l2.3-0.8l3.5,0.3l2,1.1l1.4,1.5l1,1.9l4.3,13.7l3.1,14.9l1.2,7.7l0.5,6.8l0.4,7.4l-0.1,4.1l-0.5,2L301.5,157.2z"/>
	<path class="st1 button button7" d="M287.2,101.4c6.8,15.6,9.9,34.5,9.5,50.6c-17.1-0.6-36.1-1.7-36.1-1.7c-0.4-12.2-2.8-24.8-7.2-35.4
		C261.9,111.2,287.2,101.4,287.2,101.4z"/>
	<g>
		<g class="st2">
			<path class="st3" d="M288.3,130.8l-9.3-2.3l-0.4-2l8.8,2.4l-0.8-4.8l1.6-0.3l1.2,6.9L288.3,130.8z"/>
		</g>
	</g>
	<path marker-end="none" marker-start="none" class="st0 button button8" d="M275,235.6l-2.4,0.4l-2-0.3l-3.1-1.8l-28.6-20.2l-2.6-2.5l-0.6-1.2
		l-0.5-2.6l0.1-1.3l1-2.5l1.8-3l2.4-4.4l2.3-4.8l2.4-5.7l1.9-5.3l1.2-4.1l0.8-3.1l1.4-3.5l1.9-1.8l2.4-1h2.6l35.8,6.4l2.4,0.6
		l2.8,2.1l1.1,2l0.4,2l-0.2,2.2l-3.8,13.9l-5.4,14.2l-3.2,7.1l-3.3,6l-3.6,6.4l-2.3,3.5l-1.5,1.4L275,235.6z"/>
	<path class="st1 button button8" d="M293,180.9c-2.7,16.8-10.2,34.4-19.3,47.7c-14.1-9.7-29.5-21-29.5-21c6.2-10.5,11-22.4,13-33.7
		C266.4,175.3,293,180.9,293,180.9z"/>
	<g>
		<g class="st2">
			<path class="st3" d="M276.7,205.2c-0.4-0.2-0.8-0.5-1-0.8c-0.2-0.4-0.4-0.8-0.4-1.3c-0.4,0.4-0.8,0.6-1.3,0.7
				c-0.5,0.1-1,0-1.5-0.2c-0.8-0.3-1.3-0.9-1.6-1.6c-0.2-0.7-0.2-1.6,0.2-2.5c0.4-0.9,0.9-1.6,1.7-2c0.7-0.4,1.5-0.4,2.3,0
				c0.5,0.2,0.9,0.5,1.2,0.9c0.3,0.4,0.4,0.9,0.4,1.4c0.4-0.3,0.8-0.5,1.2-0.6c0.4-0.1,0.9,0,1.3,0.2c0.8,0.3,1.3,0.8,1.5,1.6
				c0.2,0.7,0.2,1.5-0.2,2.4c-0.4,0.9-0.9,1.5-1.6,1.8C278.2,205.6,277.5,205.6,276.7,205.2z M273.3,201.9c0.4,0.2,0.8,0.2,1.1,0.1
				c0.3-0.1,0.6-0.4,0.7-0.8c0.2-0.4,0.2-0.7,0-1.1c-0.1-0.3-0.4-0.6-0.8-0.7c-0.4-0.2-0.7-0.2-1.1-0.1s-0.6,0.4-0.7,0.8
				c-0.2,0.4-0.2,0.7,0,1.1C272.7,201.5,272.9,201.7,273.3,201.9z M277.4,203.4c0.4,0.1,0.7,0.2,1,0.1c0.3-0.1,0.5-0.3,0.7-0.7
				c0.1-0.3,0.1-0.6,0-0.9c-0.1-0.3-0.4-0.5-0.7-0.6c-0.4-0.2-0.7-0.2-1-0.1c-0.3,0.1-0.5,0.3-0.7,0.7c-0.1,0.3-0.1,0.7,0,0.9
				C276.8,203,277,203.2,277.4,203.4z"/>
		</g>
	</g>
	<ellipse class="st4" cx="151.8" cy="151.5" rx="62.8" ry="63"/>
	<ellipse class="st1" cx="151.8" cy="151.5" rx="57" ry="57.2"/>
	<ellipse class="st1" cx="151.8" cy="151.5" rx="44" ry="44.1"/>
	<path class="st5" d="M186.3,152.4l-2.4-0.6c0-1.6-0.1-3.2-0.3-4.8l2.5-0.9c-0.3-1.9-0.7-3.7-1.3-5.6l-2.7,0.2
		c-0.5-1.4-1.1-2.8-1.8-4.2l2.1-1.7c-0.9-1.7-2-3.3-3.2-4.8l-2.5,1.2l-0.1-0.1c-0.9-1.1-1.9-2.2-3-3.1l1.4-2.3
		c-1.5-1.3-3-2.5-4.7-3.5l-1.9,1.9c-1.2-0.8-2.5-1.4-3.8-2l0.5-2.6c-1.8-0.7-3.7-1.3-5.6-1.7l-1.1,2.4c-1.4-0.3-2.8-0.5-4.2-0.6
		l-0.4-2.6c-2-0.1-3.9,0-5.9,0.2l-0.2,2.5c-1.4,0.2-2.8,0.5-4.3,0.8l-1.2-2.2c-1.9,0.6-3.7,1.3-5.5,2.2l0.6,2.3
		c-1.3,0.7-2.6,1.4-3.8,2.3l-1.8-1.6c-0.5,0.4-1,0.8-1.5,1.2c-1,0.9-2,1.8-2.9,2.7l1.3,1.9c-1.1,1.1-2.1,2.3-3,3.6l-2.1-0.8
		c-1.1,1.6-2,3.3-2.8,5.1l1.8,1.2c-0.7,1.5-1.2,3-1.6,4.6h-2.1c-0.5,1.9-0.8,3.8-0.9,5.7l2,0.5c-0.1,1.7-0.1,3.4,0,5.1l-1.9,0.6l0,0
		c0.2,1.9,0.5,3.8,1,5.6h0.1l1.9-0.2c0.5,1.7,1.1,3.3,1.8,5l-1.5,1.2l0,0c0.8,1.7,1.8,3.3,2.9,4.8l0,0l1.7-0.8
		c0.4,0.5,0.8,1,1.2,1.6c0.7,0.9,1.5,1.8,2.4,2.6l-1,1.7l0,0c1.4,1.3,2.8,2.5,4.3,3.5l0,0l1.4-1.4c1.6,1,3.2,1.9,4.9,2.7l-0.4,1.8
		v0.2c1.7,0.7,3.4,1.3,5.2,1.8v-0.1l0.8-1.8c1.8,0.4,3.7,0.7,5.5,0.8l0.3,2v0.1c1.8,0.1,3.7,0,5.5-0.2v-0.1l0.2-2.1
		c1.8-0.2,3.6-0.7,5.4-1.2l1.1,1.9l0,0c1.7-0.6,3.4-1.3,5.1-2.1l0,0l-0.6-2.2c1.6-0.9,3.1-1.8,4.5-3l1.8,1.5l0,0
		c0.2-0.2,0.4-0.3,0.6-0.5c1.2-1,2.4-2.1,3.5-3.3l0,0l-1.4-2c1.2-1.3,2.2-2.8,3.1-4.2l2.3,0.9l0,0c1-1.6,1.8-3.3,2.5-5l-0.1-0.1
		l-2-1.4c0.6-1.6,1.1-3.2,1.4-4.8l2.4,0.1h0.2c0.4-1.8,0.6-3.7,0.6-5.6L186.3,152.4z"/>
</g>
<g class="st2">
	<path class="st6" d="M224.7,149.5l2.1-3.9h2.7l-3.3,5.6l3.4,5.7h-2.7l-2.2-4l-2.2,4h-2.7l3.4-5.7l-3.3-5.6h2.7L224.7,149.5z"/>
</g>
<g class="st2">
	<path class="st6" d="M152.2,77.2l2.4-5.1h2.6l-3.7,7.2v4.1H151v-4.1l-3.7-7.2h2.6L152.2,77.2z"/>
</g>
<g id="Ellipse_689" transform="translate(2 69)">
	<path class="st6" d="M150.2,98.5c-9.1,0-16.5-7.4-16.5-16.5s7.4-16.5,16.5-16.5c9.1,0,16.5,7.4,16.5,16.5c0,2.7-0.7,5.4-1.9,7.7
		l-1.8-0.9c1.1-2.1,1.7-4.4,1.7-6.8c0-8-6.5-14.5-14.5-14.5s-14.5,6.5-14.5,14.5s6.5,14.5,14.5,14.5V98.5z"/>
</g>
<path id="Polygon_37" class="st6" d="M163.1,163.9l0.8-12.5l6.9,2.7L163.1,163.9z"/>
<path id="Polygon_38" class="st6" d="M214.8,151.5l-12.1,3.5l0.1-7.4L214.8,151.5z"/>
<path id="Polygon_39" class="st6" d="M152.2,88l3.7,12h-7.4L152.2,88z"/>
<rect x="174.7" y="150.3" class="st6" width="34.1" height="2"/>
<rect x="151.2" y="94.3" class="st6" width="2" height="34.5"/>
<g class="st2">
	<path class="st6" d="M150.8,155h5.7v1.9h-8.7v-1.4l5.6-8.1h-5.6v-1.9h8.5v1.3L150.8,155z"/>
</g>
</svg>
